{
	"rowEligibility":5,
	"rowWorkExperience":27,
	"rowVoluntary":5,
	"rowLearning":22,
	"rowOtherInfo":5,
	"rowVocational": 2,
	"rowCollege": 4,
	"rowGradStud": 3,
	"rowPerPage":35,
	"trHeight":"28px",
	"PAOBoxSign":"40px",
	"cssTD":"td {padding-bottom:1px;}",
	"cssTR":"tr {height:15px;}"
}