{
	"File":"admReports", 
	"Title":"Reports",
	"Description":"",
	"Action":[true,true,true,false],
	"Table":"reports",
	"Fields":[
		"Code",
		"Name",
		"Filename",
		"SystemRefId",
		"Owner",
		"ExtType",
		"For",
		"Remarks"
	],
	"Label":[
		"Code",
		"Name",
		"File Name",
		"System",
		"Owner",
		"Ext. Type",
		"For",
		"Remarks"
	],
	"InputType":[
		"Text",
		"Text",
		"Text",
		"Drop",
		"Drop",
		"Drop",
		"Drop",
		"Text"
	],
	"Class":[
		"form-input",
	    "form-input",
	    "form-input",
	    "form-input",
	    "form-input",
	    "form-input",
	    "form-input",
	    "form-input"
	],
	"DefaultValue":[
		"",
		"",
		"",
		"LookUp|System",
		"E2E|E2E,Agency|Agency",
		"php|php,htm|htm",
		"",
		""
	],
	"css":[
	    "text-align:center",
		"",
		"",
		"text-align:center;",
		"text-align:center;",
		"text-align:center;",
		"",
		""
	]
}