1985005,4,2000
2005001,4,2000
1990008,4,2000
1996003,4,2000
2015001,4,2000
2011008,4,2000
1984001,4,2000
1983003,4,2000
2003001,4,2000
2010016,4,2000
2012005,4,2000
1981002,4,2000
2013006,4,2000
2011019,4,2000
1985004,4,2000
1992007,4,2000
2011018,4,2000
1987004,4,2000
2010005,4,2000
1977001,4,2000
2010002,4,2000
1993004,4,2000
2011020,4,2000
1993002,4,2000
2016009,4,2000
2018005,4,2000
1995005,4,2000
1992003,4,2000
1987013,4,2000
2011023,4,2000
2011017,4,2000
2015003,4,2000
2011033,4,2000
2015005,4,2000
2010011,4,2000
2018008,4,2000
1985001,4,2000
1989005,4,2000
2016010,4,2000
2010014,4,2000
2011002,4,2000
2011037,4,2000
2013002,4,2000
2014009,4,2000
2011028,4,2000
1979003,4,2000
2012012,4,2000
2018006,4,2000
1989006,4,2000
1987009,4,2000
2015008,4,2000
2011032,4,2000
2012011,4,2000
1993001,4,2000
1993006,4,2000
2013003,4,2000
1978007,4,2000
2017006,4,2000
2016005,4,2000
1995007,4,2000
1990013,4,2000
1976004,4,2000
1985007,4,2000
1987010,4,2000
2011011,4,2000
1993008,4,2000
1990001,4,2000
1990007,4,2000
1981003,4,2000
1995001,4,2000
1987001,4,2000
1990011,4,2000
1988001,4,2000
2012001,4,2000
2016002,4,2000
2016003,4,2000
2015006,4,2000
2011021,4,2000
1983001,4,2000
1983002,4,2000
2010019,4,2000
2010010,4,2000
1977004,4,2000
1997001,4,2000
1987002,4,2000
2015011,4,2000
2015010,4,2000
1980001,4,2000
2012006,4,2000
1992006,4,2000
2011024,4,2000
1987003,4,2000
1989003,4,2000
2011013,4,2000
1985002,4,2000
2011034,4,2000
2011015,4,2000
2010004,4,2000
1988002,4,2000
1976002,4,2000
1987006,4,2000
2011027,4,2000
2013004,4,2000
2016006,4,2000
1977002,4,2000
2010017,4,2000
2017001,4,2000
2018007,4,2000
1990012,4,2000
1989004,4,2000
1994003,4,2000
2011009,4,2000
2012013,4,2000
1978002,4,2000
1981001,4,2000
1992009,4,2000
1989002,4,2000
1990006,4,2000
1992001,4,2000
2016007,4,2000
2014008,4,2000
1980002,4,2000
1988003,4,2000
2011025,4,2000
1992004,4,2000
2010021,4,2000
1984003,4,2000
2011010,4,2000
2015012,4,2000
2017004,4,2000
2018003,4,2000
1990002,4,2000
2017003,4,2000
2018002,4,2000
2017007,4,2000
2011036,4,2000
2011014,4,2000
1985008,4,2000
2012007,4,2000
1990005,4,2000
2015002,4,2000
2011001,4,2000
1978005,4,2000
2014010,4,2000
1994001,4,2000
1994002,4,2000
2012009,4,2000
1992002,4,2000
2014006,4,2000
2014002,4,2000
2017002,4,2000
2011030,4,2000
2011026,4,2000
2016011,4,2000
2010003,4,2000
2015014,4,2000
2013007,4,2000
2017005,4,2000
2003002,4,2000
1992005,4,2000
2013001,4,2000
1990014,4,2000
2016008,4,2000
1989001,4,2000
2008003,4,2000
1995004,4,2000
2010012,4,2000
1995006,4,2000
1996001,4,2000
1990004,4,2000
1994004,4,2000
2014007,4,2000
2015004,4,2000
1990003,4,2000
2011035,4,2000
2015007,4,2000
1993007,4,2000
1976001,4,2000
1987007,4,2000
2016004,4,2000
2012002,4,2000
1978003,4,2000
1991001,4,2000
2012003,4,2000
1979002,4,2000
2012004,4,2000
1992008,4,2000
1994005,4,2000
1993003,4,2000
1987011,4,2000
2016001,4,2000
1985003,4,2000
1990009,4,2000
1978001,4,2000
1993005,4,2000
1979001,4,2000
2010013,4,2000
2016012,4,2000
1978009,4,2000
2014004,4,2000
2018001,4,2000
1987005,4,2000
1987014,4,2000
2011006,4,2000
2015013,4,2000
1984002,4,2000
1995003,4,2000
2018004,4,2000
2011016,4,2000
2011022,4,2000
2011007,4,2000
1989007,4,2000
2011004,4,2000
1987008,4,2000
2011005,4,2000
