1985005,5,100
2011008,5,100
2003001,5,200
2010016,5,1000
1981002,5,100
2011019,5,100
2010005,5,100
2010002,5,100
2011020,5,100
2016009,5,100
1987013,5,200
2011023,5,100
2014001,5,100
2010011,5,200
1989005,5,100
2016010,5,3000
2011002,5,100
2011028,5,1000
1979003,5,100
1989006,5,100
2015008,5,500
2017006,5,500
2016005,5,600
1995007,5,200
1990013,5,100
1976004,5,200
1981003,5,300
1995001,5,250
1987001,5,300
1990011,5,500
2010019,5,500
2010010,5,500
1977004,5,500
1997001,5,100
2015011,5,500
2012006,5,100
2011024,5,500
1989003,5,500
2011034,5,100
2011015,5,250
2010004,5,200
1988002,5,100
2011027,5,500
2013004,5,500
1977002,5,100
1989004,5,200
1978002,5,100
1981001,5,100
1990006,5,100
1992004,5,100
2010021,5,100
1984003,5,100
1990002,5,100
2012009,5,100
2014006,5,500
2015014,5,1000
2013007,5,100
2017005,5,3500
2003002,5,100
1990014,5,500
2010012,5,100
1995006,5,100
1990004,5,100
2015004,5,1000
2011035,5,200
2015007,5,300
1987007,5,100
2012002,5,100
1991001,5,100
2012003,5,100
1979002,5,800
2012004,5,100
1994005,5,100
1993003,5,1000
1990009,5,200
2010013,5,100
1978009,5,500
1987014,5,100
2011016,5,100
1989007,5,300
2011004,5,100
1987008,5,500
2011005,5,500
